<?xml version="1.0" encoding="utf-8"?>
<!-- Generator: Adobe Illustrator 18.1.0, SVG Export Plug-In . SVG Version: 6.00 Build 0)  -->
<!DOCTYPE svg PUBLIC "-//W3C//DTD SVG 1.1//EN" "http://www.w3.org/Graphics/SVG/1.1/DTD/svg11.dtd">
<svg version="1.1" id="Layer_1" xmlns="http://www.w3.org/2000/svg" xmlns:xlink="http://www.w3.org/1999/xlink" x="0px" y="0px"
	 viewBox="0 0 400 400" enable-background="new 0 0 400 400" xml:space="preserve">
<g>
	<circle fill="#F16600" cx="200.2" cy="200.1" r="186.8"/>
	<g>
		<path fill="#E6E6E6" d="M303.7,287.1H95.9c-8.3,0-15.1-6.8-15.1-15.1V128.1c0-8.3,6.8-15.1,15.1-15.1h207.8
			c8.3,0,15.1,6.8,15.1,15.1V272C318.8,280.3,312,287.1,303.7,287.1z"/>
		<circle fill="#BD3E25" cx="104.5" cy="133.4" r="7.5"/>
		<circle fill="#E27C3E" cx="125.8" cy="133.4" r="7.5"/>
		<circle fill="#45B39D" cx="145.9" cy="133.4" r="7.5"/>
		<rect x="102.4" y="158.5" fill="#FFFFFF" width="196" height="106.8"/>
		<rect x="246.9" y="176" fill="#B3B3B3" width="35.2" height="72.9"/>
		<rect x="117.4" y="176" fill="#B3B3B3" width="110.8" height="35.2"/>
		<rect x="117.4" y="216.8" fill="#B3B3B3" width="110.8" height="8"/>
		<rect x="117.4" y="228.9" fill="#B3B3B3" width="110.8" height="8"/>
		<rect x="117.4" y="240.9" fill="#B3B3B3" width="110.8" height="8"/>
	</g>
</g>
</svg>
