<?xml version="1.0" encoding="utf-8"?>
<!-- Generator: Adobe Illustrator 18.1.0, SVG Export Plug-In . SVG Version: 6.00 Build 0)  -->
<!DOCTYPE svg PUBLIC "-//W3C//DTD SVG 1.1//EN" "http://www.w3.org/Graphics/SVG/1.1/DTD/svg11.dtd">
<svg version="1.1" xmlns="http://www.w3.org/2000/svg" xmlns:xlink="http://www.w3.org/1999/xlink" x="0px" y="0px"
	 viewBox="0 0 301.1 301.8" enable-background="new 0 0 301.1 301.8" xml:space="preserve">
<g id="Icon_Set_7">
</g>
<g id="Icon_Set_6">
</g>
<g id="Icon_Set_5">
	<g>
		<circle fill="#324D5C" cx="150.2" cy="151.6" r="148.7"/>
		<path fill="#EBEFF0" d="M196,67.1c0-5.6-4.5-10.1-10.1-10.1h-69.8c-5.6,0-10.1,4.5-10.1,10.1v168.8c0,5.6,4.5,10.1,10.1,10.1h69.8
			c5.6,0,10.1-4.5,10.1-10.1V67.1z M151.6,241.5c-4.7,0-8.6-3.8-8.6-8.6c0-4.7,3.8-8.6,8.6-8.6c4.7,0,8.6,3.8,8.6,8.6
			C160.2,237.6,156.3,241.5,151.6,241.5z M191,217.4c0,0.9-0.7,1.6-1.6,1.6h-75.8c-0.9,0-1.6-0.7-1.6-1.6V80.6
			c0-0.9,0.7-1.6,1.6-1.6h75.8c0.9,0,1.6,0.7,1.6,1.6V217.4z"/>
	</g>
</g>
<g id="Icon_Set_4">
</g>
<g id="Icon_Set_3">
</g>
<g id="Icon_Set_2">
</g>
<g id="Icon_Set_1">
</g>
<g id="Layer_17">
</g>
<g id="Layer_9">
</g>
<g id="Layer_10">
</g>
</svg>
