<?xml version="1.0" encoding="utf-8"?>
<!-- Generator: Adobe Illustrator 18.1.0, SVG Export Plug-In . SVG Version: 6.00 Build 0)  -->
<!DOCTYPE svg PUBLIC "-//W3C//DTD SVG 1.1//EN" "http://www.w3.org/Graphics/SVG/1.1/DTD/svg11.dtd">
<svg version="1.1" id="Layer_1" xmlns="http://www.w3.org/2000/svg" xmlns:xlink="http://www.w3.org/1999/xlink" x="0px" y="0px"
	 viewBox="0 0 400 400" enable-background="new 0 0 400 400" xml:space="preserve">
<g>
	<circle fill="#009485" cx="200" cy="199.7" r="186.8"/>
	<g>
		<g>
			<circle fill="#FFFFFF" cx="200" cy="247.3" r="14.2"/>
			<rect x="188.9" y="137.9" fill="#FFFFFF" width="22.3" height="77.9"/>
		</g>
		<path fill="#FFFFFF" d="M199.8,81.8C134.2,81.9,81.9,134.5,82,199.9c0.1,67.3,54.8,118,117.7,117.8
			c65.2,0.2,117.9-52.3,118.2-117.6C318.3,136.4,267.1,81.7,199.8,81.8z M200.2,306.1c-59.9,0.1-106.3-47.9-106.6-106.2
			C93.9,141,140.9,93.6,199.8,93.5C258.3,93.3,306.5,140,306.3,200C306.2,259,259.3,305.9,200.2,306.1z"/>
	</g>
</g>
</svg>
