<?xml version="1.0" encoding="utf-8"?>
<!-- Generator: Adobe Illustrator 19.1.0, SVG Export Plug-In . SVG Version: 6.00 Build 0)  -->
<svg version="1.1" id="Layer_1" xmlns="http://www.w3.org/2000/svg" xmlns:xlink="http://www.w3.org/1999/xlink" x="0px" y="0px" viewBox="0 0 85.1 85.1"
	 style="enable-background:new 0 0 85.1 85.1;" xml:space="preserve">
<style type="text/css">
	.st0{fill:#F16600;}
	.st1{fill:#E6E6E6;}
	.st2{fill:#B3B3B3;}
	.st3{fill:#009688;}
	.st4{fill:#30537A;}
	.st5{fill:#4172B0;}
	.st6{fill:#FFFFFF;}
	.st7{fill:#FFB733;}
	.st8{fill:#67A4FE;}
	.st9{fill:#FFD350;}
	.st10{fill:#BA000E;}
	.st11{fill:#6F201F;}
	.st12{fill:#4A8D8A;}
	.st13{fill:#3B556C;}
	.st14{fill:#B04155;}
	.st15{fill:#D3AF73;}
	.st16{fill:#5D432A;}
	.st17{fill:#B88554;}
	.st18{fill:#CCCCCC;}
	.st19{fill:#333333;}
	.st20{fill:#666666;}
</style>
<g>
	<g>
		<path class="st0" d="M42.5,4c21.3,0,38.5,17.3,38.5,38.5S63.8,81.1,42.5,81.1S4,63.8,4,42.5S21.3,4,42.5,4 M42.5,0
			C19,0,0,19,0,42.5s19,42.5,42.5,42.5c23.5,0,42.5-19,42.5-42.5S66,0,42.5,0L42.5,0z"/>
	</g>
	<g>
		<path class="st1" d="M66.2,62.4H18.9c-1.9,0-3.4-1.5-3.4-3.4V26.2c0-1.9,1.5-3.4,3.4-3.4h47.2c1.9,0,3.4,1.5,3.4,3.4V59
			C69.6,60.9,68.1,62.4,66.2,62.4z"/>
		<g>
			<rect x="20.8" y="32.5" class="st2" width="28.8" height="10.1"/>
			<rect x="54.2" y="32.5" class="st2" width="10.1" height="24.6"/>
			<rect x="20.8" y="47" class="st2" width="28.8" height="10.1"/>
		</g>
	</g>
</g>
</svg>
