<?xml version="1.0" encoding="utf-8"?>
<!-- Generator: Adobe Illustrator 19.1.0, SVG Export Plug-In . SVG Version: 6.00 Build 0)  -->
<svg version="1.1" id="Layer_1" xmlns="http://www.w3.org/2000/svg" xmlns:xlink="http://www.w3.org/1999/xlink" x="0px" y="0px" viewBox="0 0 84.7 84.7"
	 style="enable-background:new 0 0 84.7 84.7;" xml:space="preserve">
<style type="text/css">
	.st0{fill:#F16600;}
	.st1{fill:#E6E6E6;}
	.st2{fill:#B3B3B3;}
	.st3{fill:#009688;}
	.st4{fill:#30537A;}
	.st5{fill:#4172B0;}
	.st6{fill:#FFFFFF;}
	.st7{fill:#FFB733;}
	.st8{fill:#67A4FE;}
	.st9{fill:#FFD350;}
	.st10{fill:#BA000E;}
	.st11{fill:#6F201F;}
	.st12{fill:#4A8D8A;}
	.st13{fill:#3B556C;}
	.st14{fill:#B04155;}
	.st15{fill:#D3AF73;}
	.st16{fill:#5D432A;}
	.st17{fill:#B88554;}
	.st18{fill:#CCCCCC;}
	.st19{fill:#333333;}
	.st20{fill:#666666;}
</style>
<g>
	<path class="st15" d="M42.4,4c21.1,0,38.4,17.2,38.4,38.4c0,21.1-17.2,38.4-38.4,38.4S4,63.5,4,42.4C4,21.2,21.2,4,42.4,4 M42.4,0
		C19,0,0,19,0,42.4c0,23.4,19,42.4,42.4,42.4c23.4,0,42.4-19,42.4-42.4C84.7,19,65.7,0,42.4,0L42.4,0z"/>
	<path class="st15" d="M20.4,57.9c0-0.1,0-0.1,0-0.2C20.4,57.8,20.4,57.8,20.4,57.9z"/>
	<path class="st15" d="M20.5,57.2c0-0.1,0-0.1,0-0.2C20.5,57.1,20.5,57.1,20.5,57.2z"/>
	<path class="st15" d="M20.5,58.5C20.5,58.5,20.5,58.4,20.5,58.5C20.5,58.4,20.5,58.5,20.5,58.5z"/>
	<g>
		<path class="st16" d="M58.5,26.2c0.8,1.5,0.6,3.2,0.4,4.8c0,0.4-0.3,0.9,0.4,1c0.3,0,0.3,0.4,0.3,0.6c-0.1,1.1-0.2,2.2-0.3,3.3
			c0,0.2-0.2,0.5-0.4,0.5c-1,0-0.8,0.7-0.9,1.2c0,0.9-0.4,1.6-1.1,2.3c-0.6,0.5-0.5,1.4-0.5,2.1c0,0.4,0.4,0.3,0.7,0.4
			c2.7,0.4,5.3,1.2,7.8,2.3c1.7,0.8,2.4,1.8,2.2,3.7c-0.2,2.6-0.2,2.6-2.8,2.6c-8.5,0-17,0-25.6,0c-0.4-1.3-0.5-2.6-0.4-3.8
			c0.1-1.1,0.8-1.8,1.8-2.3c2.6-1.2,5.3-2,8.1-2.4c0.6-0.1,0.8-0.3,0.7-0.9c-0.1-0.8-0.2-1.6-0.9-2.1c-0.7-0.5-0.6-1.4-0.7-2.2
			c-0.1-0.4,0.1-0.9-0.7-0.8c-0.4,0-0.5-0.4-0.5-0.8c-0.1-0.8-0.2-1.7-0.2-2.5c0-0.5-0.2-1,0.6-1.2c0.4-0.1,0.2-0.4,0.2-0.6
			c-0.1-0.9-0.1-1.7-0.2-2.6c-0.1-1.8,0.8-3.1,2.4-4C52.1,23,56,23.6,58.5,26.2z"/>
		<path class="st16" d="M37.5,26.2c0.8,1.5,0.6,3.2,0.4,4.8c0,0.4-0.3,0.9,0.4,1c0.3,0,0.3,0.4,0.3,0.6c-0.1,1.1-0.2,2.2-0.3,3.3
			c0,0.2-0.2,0.5-0.4,0.5c-1,0-0.8,0.7-0.9,1.2c0,0.9-0.4,1.6-1.1,2.3c-0.6,0.5-0.5,1.4-0.5,2.1c0,0.4,0.4,0.3,0.7,0.4
			c2.7,0.4,5.3,1.2,7.8,2.3c1.7,0.8,2.4,1.8,2.2,3.7c-0.2,2.6-0.2,2.6-2.8,2.6c-8.5,0-17,0-25.6,0c-0.4-1.3-0.5-2.6-0.4-3.8
			c0.1-1.1,0.8-1.8,1.8-2.3c2.6-1.2,5.3-2,8.1-2.4c0.6-0.1,0.8-0.3,0.7-0.9c-0.1-0.8-0.2-1.6-0.9-2.1c-0.7-0.5-0.6-1.4-0.7-2.2
			c-0.1-0.4,0.1-0.9-0.7-0.8c-0.4,0-0.5-0.4-0.5-0.8c-0.1-0.8-0.2-1.7-0.2-2.5c0-0.5-0.2-1,0.6-1.2c0.4-0.1,0.2-0.4,0.2-0.6
			c-0.1-0.9-0.1-1.7-0.2-2.6c-0.1-1.8,0.8-3.1,2.4-4C31.1,23,35,23.6,37.5,26.2z"/>
		<path class="st17" d="M42.1,23.6c-1.8,0-3.5,0.4-5.1,1.3c-2.2,1.2-3.3,3-3.2,5.3c0,0.7,0.1,1.5,0.1,2.2c0,0.5,0.1,0.9,0.1,1.4
			c0,0,0,0.1,0,0.2c0,0.2,0.1,0.5,0,0.7C34,34.9,33.9,35,33.6,35c-0.7,0.1-0.7,0.5-0.6,1.2c0,0.1,0,0.1,0,0.2
			c0.1,0.7,0.1,1.5,0.2,2.2c0,0.4,0.1,0.8,0.1,1.2c0.1,0.6,0.2,0.8,0.4,0.8h0c0.1,0,0.1,0.1,0.2,0.1c0.9,0,1,0.7,1,1.2
			c0,0.1,0,0.2,0,0.3c0.1,0.3,0.1,0.6,0.1,0.9c0.1,0.8,0.1,1.6,0.8,2.1c1.1,0.8,1.2,1.9,1.4,2.9l0,0.2c0.1,0.5,0,0.8-0.2,1.1
			c-0.2,0.3-0.7,0.4-1.1,0.5c-3.8,0.5-7.6,1.6-11.3,3.3c-1.4,0.6-2.2,1.7-2.4,3c-0.2,1.6,0,3.2,0.5,5.1l10.5,0c8.4,0,16.7,0,25.1,0
			c1.7,0,2.6,0,3-0.4c0.4-0.4,0.5-1.3,0.7-3c0-0.2,0-0.3,0-0.5c0-0.3,0-0.6,0-0.9c0-0.1,0-0.2,0-0.3c0,0,0,0,0,0
			c-0.2-1.5-1.1-2.5-2.9-3.2c-3.4-1.5-7.1-2.6-10.9-3.1c-0.1,0-0.1,0-0.2,0c-0.3,0-0.6,0-0.8-0.2c-0.1-0.1-0.2-0.2-0.2-0.4
			c0,0-0.6-0.1-0.6-0.1c0,0-0.6,0-0.6,0c0,0,0,0,0,0c0-0.2,0.6-0.4,0.6-0.6c0,0,0.3-0.1,0.3-0.1c0,0,0.1,0,0.1,0c0,0-0.5,0-0.5,0
			c0,0-0.5-0.1-0.5-0.1c0,0,0,0,0-0.1c0,0,0.6-0.1,0.6-0.1c0,0-0.3,0-0.3,0c0-0.1-0.3-0.1-0.3-0.2c0,0,0,0,0,0
			c0-0.7,0.8-1.3,1.4-1.8c0.9-0.8,1.4-1.8,1.5-3c0-0.1,0.1-0.2,0.1-0.3c0,0,0-0.1,0-0.1c0,0,0-0.1,0-0.1c0,0,0,0,0,0
			c0,0,0-0.1,0-0.1c0,0,0,0,0,0c0,0,0.2-0.1,0.2-0.1c0,0,0.1,0,0.1-0.1c0,0,0.1,0,0.1-0.1c0.1-0.6,0.4-1.1,1.4-1.1c0,0,0.1,0,0.1,0
			c0.1,0,0.2-0.2,0.2-0.4c0.1-1.5,0-3,0.2-4.6c0,0-0.3-0.1-0.3-0.1c0,0,0,0,0-0.1c0,0,0.3,0,0.3-0.1c0-0.2,0.1-0.3-0.1-0.4
			c-0.4-0.1-0.8-0.2-0.9-0.4c-0.1-0.1-0.3-0.3-0.3-0.4c0,0,0,0,0,0c0,0,0.2,0,0.2-0.1c0,0,0.1,0,0.1,0c0-0.1,0.1-0.3,0.1-0.4
			c0-0.1,0.1-0.2,0.1-0.3c0-0.2,0-0.4,0.1-0.6c0-0.5,0.3-1,0.3-1.5c0-0.6,0.2-1.1,0.2-1.7c0,0,0,0,0,0c0-0.1-0.2-0.2-0.2-0.3
			c0,0-0.1-0.1-0.1-0.1c0-0.1-0.1-0.1-0.1-0.2c-0.1-0.7-0.3-1.4-0.7-2.1C48,24.8,45.1,23.6,42.1,23.6z"/>
	</g>
	<path class="st15" d="M20.5,58.4c0-0.2,0-0.3,0-0.5C20.4,58.1,20.5,58.2,20.5,58.4z"/>
	<path class="st15" d="M20.4,57.7c0-0.2,0-0.3,0-0.5C20.4,57.4,20.4,57.5,20.4,57.7z"/>
</g>
</svg>
