<?xml version="1.0" encoding="utf-8"?>
<!-- Generator: Adobe Illustrator 18.1.0, SVG Export Plug-In . SVG Version: 6.00 Build 0)  -->
<!DOCTYPE svg PUBLIC "-//W3C//DTD SVG 1.1//EN" "http://www.w3.org/Graphics/SVG/1.1/DTD/svg11.dtd">
<svg version="1.1" xmlns="http://www.w3.org/2000/svg" xmlns:xlink="http://www.w3.org/1999/xlink" x="0px" y="0px"
	 viewBox="0 0 301.1 301.8" enable-background="new 0 0 301.1 301.8" xml:space="preserve">
<g id="Icon_Set_7">
</g>
<g id="Icon_Set_6">
</g>
<g id="Icon_Set_5">
	<g>
		<circle fill="#315684" cx="150.7" cy="148.1" r="148.7"/>
		<g>
			<path fill="#178F78" d="M201.7,109.6c-1.2-13.2-6.6-24.3-16-33.1c-10.6-9.9-23.3-14.6-37.7-13.8c-13.9,0.8-25.6,6.3-35,16.6
				c-8.6,9.5-13.1,20.8-13.3,33.8c-0.1,5.3,1.2,10.3,2.3,14.5c3.6,13.1,9,25.6,13.7,36.3c7.4,16.7,16.1,34.3,27.2,55.3
				c1.1,2.2,2.3,4.3,3.5,6.5l4.2,7.7l2.9-4.8c0.2-0.3,0.4-0.6,0.5-0.9c12.5-23,22.2-42.4,30.6-61.1c6.3-14.1,11.3-26.1,14.9-38.8
				C201.5,120.8,202.2,115.1,201.7,109.6z M151,134.2c-11,0-19.9-8.9-19.9-19.9c0-11,8.9-19.9,19.9-19.9c11,0,19.9,8.9,19.9,19.9
				C170.9,125.3,162,134.2,151,134.2z"/>
			<circle fill="#FFFFFF" cx="150.6" cy="114.4" r="20"/>
		</g>
	</g>
</g>
<g id="Icon_Set_4">
</g>
<g id="Icon_Set_3">
</g>
<g id="Icon_Set_2">
</g>
<g id="Icon_Set_1">
</g>
<g id="Layer_17">
</g>
<g id="Layer_9">
</g>
<g id="Layer_10">
</g>
</svg>
