<svg version="1.1" id="Layer_1" xmlns="http://www.w3.org/2000/svg" xmlns:xlink="http://www.w3.org/1999/xlink" x="0px" y="0px" viewBox="123 -69.6 400 400"
	 style="enable-background:new 123 -69.6 400 400;" xml:space="preserve">
<style type="text/css">
	.st1{fill:none;stroke:#CCCCCC;stroke-width:9.8291;stroke-miterlimit:10;}
	.st2{fill:#999999;}
	.st3{fill:#000000;}
</style>
<circle class="st1" cx="323.6" cy="131" r="182.7"/>
<path class="st2" d="M387.8,208.4H265.3c-4.3,0-7.7-3.5-7.7-7.7V50.3c0-4.3,3.5-7.7,7.7-7.7h122.5c4.3,0,7.7,3.5,7.7,7.7v150.4
	C395.5,204.9,392.1,208.4,387.8,208.4z"/>
<path class="st3" d="M314.6,240.4l-51.8-32.2c-2-0.7-5.3-2.6-5.3-8.4V50.1c0-4.3,4-8.7,9-7l52.2,32.5c6.1,4,7.7,5.8,7.7,9.4v150.3
	C326.5,240.3,321.5,244.2,314.6,240.4z"/>
<g>
	<path class="st3" d="M435.8,137.8h-78.3c-2.6,0-4.7-2.1-4.7-4.7l0,0c0-2.6,2.1-4.7,4.7-4.7h78.3c2.6,0,4.7,2.1,4.7,4.7l0,0
		C440.6,135.7,438.4,137.8,435.8,137.8z"/>
	<path class="st3" d="M439.2,136.4l-26,26c-1.8,1.8-4.8,1.8-6.7,0l0,0c-1.8-1.8-1.8-4.8,0-6.7l26-26c1.8-1.8,4.8-1.8,6.7,0l0,0
		C441,131.6,441,134.6,439.2,136.4z"/>
	<path class="st3" d="M432.5,136.4l-26-26c-1.8-1.8-1.8-4.8,0-6.7l0,0c1.8-1.8,4.8-1.8,6.7,0l26,26c1.8,1.8,1.8,4.8,0,6.7l0,0
		C437.3,138.3,434.3,138.3,432.5,136.4z"/>
</g>
</svg>
